id,name,model_id:id,group_id:id,perm_read,perm_write,perm_create,perm_unlink
access_account_partner_statement_config,account_partner_statement_config,model_account_partner_statement_config,account.group_account_manager,1,1,1,1
access_account_partner_statement_config_user,account_partner_statement_config_user,model_account_partner_statement_config,base.group_user,1,0,0,0
access_account_partner_statement_batch,account_partner_statement_batch,model_account_partner_statement_batch,account.group_account_user,1,1,1,1
access_account_partner_statement_header,account_partner_statement_header,model_account_partner_statement_header,account.group_account_user,1,1,1,1
access_account_partner_statement_line,account_partner_statement_line,model_account_partner_statement_line,account.group_account_user,1,1,1,1
access_account_partner_statement_bal,account_partner_statement_bal,model_account_partner_statement_bal,account.group_account_user,1,1,1,1
