id,name,model_id/id,group_id/id,perm_read,perm_write,perm_create,perm_unlink
access_industry_sector,report_industry_sector_manager,model_industry_sector,sales_team.group_sale_manager,1,1,1,1
access_industry_sector_user,report_industry_sector_user,model_industry_sector,base.group_user,1,0,0,0
