id,name,model_id:id,group_id:id,perm_read,perm_write,perm_create,perm_unlink
access_product_templant_import_viewer,product.template.import.stage vw,model_migration_product_template_import_stage,base_migrate.base_willow_viewer,1,0,0,0
access_product_templant_import_manager,product.template.import.stage mgr,model_migration_product_template_import_stage,base_migrate.base_willow_migrator,1,1,1,1
access_product_variant_import_viewer,product.variant.import.stage vw,model_migration_product_variant_import_stage,base_migrate.base_willow_viewer,1,0,0,0
access_product_variant_import_manager,product.variant.import.stage mgr,model_migration_product_variant_import_stage,base_migrate.base_willow_migrator,1,1,1,1
